IP Address,Number of Requests,Percentage of the total amount of requests,Total Bytes sent,Percentage of the total amount of bytes
0.0.0.1,13,33.333336%,13312,33.0%
0.0.0.2,8,20.512821%,8192,21.0%
0.0.0.3,5,12.820514%,5120,13.0%
